<svg xmlns="http://www.w3.org/2000/svg" width="6" height="11" viewBox="0 0 6 11">
  <path id="Polígono_1" data-name="Polígono 1" d="M5.5,0,11,6H0Z" transform="translate(6) rotate(90)" fill="#001e50"/>
</svg>
