<svg xmlns="http://www.w3.org/2000/svg" width="8.259" height="5.1" viewBox="0 0 8.259 5.1">
  <path id="Icon_material-keyboard-arrow-down" data-name="Icon material-keyboard-arrow-down" d="M9.97,11.76l3.159,3.152,3.159-3.152.97.97-4.13,4.13L9,12.73Z" transform="translate(-9 -11.76)" fill="#001e50"/>
</svg>
