<svg xmlns="http://www.w3.org/2000/svg" width="18.416" height="18.412" viewBox="0 0 18.416 18.412">
  <path id="Icon_awesome-instagram" data-name="Icon awesome-instagram" d="M9.2,6.723a4.721,4.721,0,1,0,4.721,4.721A4.713,4.713,0,0,0,9.2,6.723Zm0,7.79a3.069,3.069,0,1,1,3.069-3.069A3.075,3.075,0,0,1,9.2,14.513ZM15.22,6.53a1.1,1.1,0,1,1-1.1-1.1A1.1,1.1,0,0,1,15.22,6.53Zm3.127,1.117A5.449,5.449,0,0,0,16.859,3.79,5.485,5.485,0,0,0,13,2.3c-1.52-.086-6.076-.086-7.6,0A5.477,5.477,0,0,0,1.547,3.786,5.467,5.467,0,0,0,.059,7.643c-.086,1.52-.086,6.076,0,7.6A5.449,5.449,0,0,0,1.547,19.1,5.492,5.492,0,0,0,5.4,20.585c1.52.086,6.076.086,7.6,0A5.449,5.449,0,0,0,16.859,19.1a5.485,5.485,0,0,0,1.487-3.858c.086-1.52.086-6.072,0-7.592Zm-1.964,9.223a3.107,3.107,0,0,1-1.75,1.75c-1.212.481-4.088.37-5.427.37s-4.219.107-5.427-.37a3.107,3.107,0,0,1-1.75-1.75c-.481-1.212-.37-4.088-.37-5.427s-.107-4.219.37-5.427a3.107,3.107,0,0,1,1.75-1.75C4.99,3.786,7.865,3.9,9.2,3.9s4.219-.107,5.427.37a3.107,3.107,0,0,1,1.75,1.75c.481,1.212.37,4.088.37,5.427S16.863,15.663,16.382,16.871Z" transform="translate(0.005 -2.238)" fill="#fff"/>
</svg>
