<svg xmlns="http://www.w3.org/2000/svg" width="113" height="63" viewBox="0 0 113 63">
  <g id="logo-prototype" transform="translate(-1709.99 -48.662)">
    <g id="lightBLogo" transform="translate(1760.99 48.662)">
      <rect id="Retângulo_3" data-name="Retângulo 3" width="62" height="62" transform="translate(0 0)" fill="none"/>
      <path id="Caminho_3" data-name="Caminho 3" d="M40.581,54.728A14.191,14.191,0,0,1,26.465,40.581a13.84,13.84,0,0,1,.9-4.955l8.258,16.609a.509.509,0,0,0,1,0l3.8-8.507c.031-.093.093-.187.187-.187s.125.093.187.187l3.8,8.507a.509.509,0,0,0,1,0l8.258-16.609a13.84,13.84,0,0,1,.9,4.955A14.285,14.285,0,0,1,40.581,54.728Zm0-17.357c-.093,0-.125-.093-.187-.187l-4.425-9.972a13.531,13.531,0,0,1,9.224,0l-4.425,9.972C40.706,37.309,40.674,37.371,40.581,37.371ZM36.062,47.624c-.093,0-.125-.093-.187-.187L28.708,32.977a14.34,14.34,0,0,1,5.079-4.768l5.173,11.5a.363.363,0,0,0,.374.249h2.493a.365.365,0,0,0,.405-.249l5.173-11.5a14.6,14.6,0,0,1,5.079,4.768l-7.23,14.459c-.031.093-.093.187-.187.187s-.125-.093-.187-.187l-2.711-6.17a.365.365,0,0,0-.405-.249H39.272a.365.365,0,0,0-.405.249l-2.618,6.17C36.218,47.53,36.156,47.624,36.062,47.624Zm4.518,8.538A15.581,15.581,0,1,0,25,40.581,15.547,15.547,0,0,0,40.581,56.162Z" transform="translate(-9.419 -9.419)" fill="#fff"/>
    </g>
    <text id="Discar" transform="translate(1709.99 85.662)" fill="#fff" font-size="19" font-family="Helvetica"><tspan x="0" y="0">Discar</tspan></text>
  </g>
</svg>
